,Number of Runs,Total Duration,Start to first Get Time,Start to first Run Time,Number of Resets,Success Rate,Get to Put Time,Number of Runs,Total Duration,Start to first Get Time,Start to first Run Time,Number of Resets,Success Rate,Get to Put Time,Group
5242,6,249205,15557.66667,37806.16667,0,1,532,1,22551,11494,20929,0,1,527,0
6278,7,186002,5169,20220.2,0,1,970.1818182,1,21391,3396,19807,0,1,627.5,0
4658,3,182306,35557.66667,57150,0,1,698,2,427185577,9071.666667,64495.5,0,0.5,675.5769231,0
5508,5,126129,9633.8,20897.75,0,0.666666667,1294.8,1,21632,4705,14259,0,0.5,804,1
6277,2,65039,4859.5,31730,0,0.5,878.9333333,1,13356,4911,11577,0,1,777.5,1
6535,3,101214,5411.333333,26748,0,1,966.6818182,2,37997,8636.5,17355.5,0,0.666666667,964.5,1
5037,3,86849,18178.66667,27531.66667,0,1,1219.8,1,6616,2307,4975,0,1,284,1
6614,2,80895,10653.5,33019,0,1,862.4705882,1,14612,6486,12978,0,1,393.5,1
5895,2,81392,11864,33238.5,0,1,1235.466667,1,11999,4459,10338,0,1,917,1
6041,2,111436,9084,47214,0,1,1157.5,2,71822,5410,31590,0,1,1073.454545,1
6242,1,19751,6134,18055,0,1,685,1,10563,3379,8709,0,1,734.5,2
5360,2,24453,2726,10268,0,1,120.95,3,43467,4804.5,20337.5,0,0.5,1219.818182,2
5277,1,11721,3999,10066,0,1,350.3333333,1,8689,2945,7037,0,1,462.5,2
6205,4,40381,6078,8812,0,1,345.2222222,1,8453,3394,6823,0,1,209,2
6079,2,41960,3751.5,15866.5,0,1,823.25,1,11917,3992,10256,0,1,1051.5,2
6112,3,48757,12669,19948,0,1,607.8571429,1,14396,5978,12785,0,1,792,2
427,3,85702,3208.25,6596,5,0.428571429,463.5833333,6,348851,8413.25,9433,2,0.1875,557.1,2
6234,8,176827,10748.5,24776,1,1,737,13,366141,7626,30332,0,1,1184.75,2
5362,1,625111,293114.5,613490,0,0.5,581.9090909,2,87049,19876.33333,28198.5,1,0.666666667,342.4444444,2
5746,3,4383149,3836,9004.5,0,0.5,658.4,6,189390,5066.75,26380,1,1,804.2702703,2
6274,1,43017,27532,41383,0,1,1952,1,20460,9728,18826,0,1,627,2
6036,43,977953,6370.4,41384.1,3,0.9,928.7860697,16,394876,5666.5,37034.71429,0,0.777777778,970.2474227,2
5055,5,248256,8827,60000,0,1,713.6981132,2,134515,6648,93644,0,0,850.7096774,2
6310,2,52924,5021,20846,0,1,1357.083333,4,66936,8564.5,9874,0,1,1893.375,2
5332,1,26940,10492,6306,0,0,267,2,1104573,12214,36033.5,0,0.666666667,831.5555556,2
5195,5,87587,14210.33333,14080,0,0.666666667,983.3333333,18,1036541,8144.6,32777.25,5,0.6,724.2985075,2
6317,2,86594,29273.5,41716.5,0,1,855.5,3,62030,15927,18077,0,1,419.2857143,2
6365,1,46087,22204,36216,0,0.5,1057.5,1,13701,5643,12071,0,1,763,2
6347,1,39613,3850,34218,1,1,617.1111111,1,18012,7577,16405,0,1,635,2
6416,2,118208,8068,41679.5,0,0.5,569.4782609,15,387787,9795.666667,24608.625,1,0.888888889,1012.670886,2
6576,5,276733,3913.8,42845,1,0.8,1956.26087,1,14419,4252,12863,0,1,1545.5,2
6346,4,117796,7299.25,24275.5,0,1,799.125,1,301627,286810,299992,0,1,643,2
6367,40,517825,8926.4,23876,2,1,906.8571429,25,497012,14161.71429,21206.14286,2,0.857142857,924.7118644,2
6599,10,307287,12639.5,29741.5,0,1,1134.630435,13,451939,10961.33333,33904,2,1,1040.745455,2
1770,1,40572,24606,38955,0,1,1302.5,1,23268,7191,21584,0,1,1053,2
5363,3,112840,12552.33333,31667,0,1,783.6521739,3,179029,5832.5,22139.5,0,1,668.1111111,3
6314,3,105791,14689,31362.33333,0,1,825.5333333,5,114595,8019,20654,0,1,842.9375,3
6265,4,160726425,5867,40177200.75,0,1,1254,7,233770,7976.5,26356.5,3,0.5,981.8510638,3
5364,9,171031763,7995,22835.375,0,0.777777778,677.2777778,2,91709,7443,45901,0,0,420.4166667,3
6345,1,22430,3849,15445,0,1,718.5,5,95222,3657,15033,0,1,1089.785714,4
5700,8,78585171,9785390.25,9819266,0,1,1642.725,9,1282809,14301.8,53911.33333,0,0.636363636,1107.645833,4